DISTANCE: 10959
16
41
34
3
23
14
25
39
32
24
10
45
35
4
26
42
2
29
5
48
13
21
47
11
40
15
12
20
33
46
36
6
37
19
27
17
43
30
28
7
18
44
31
38
9
8
1
22
END
DISTANCE: 10772
1
8
38
31
44
18
7
28
6
37
19
27
17
43
30
36
46
33
15
12
20
47
11
23
14
25
13
21
39
32
24
10
45
35
4
26
42
2
29
5
48
34
41
16
22
3
40
9
END
DISTANCE: 11214
6
37
19
27
17
43
30
36
33
12
15
9
8
1
40
11
23
3
22
16
41
34
29
2
26
4
35
45
10
24
42
5
48
32
39
25
14
13
21
47
20
46
38
31
44
18
7
28
END
DISTANCE: 11552
1
8
9
33
20
47
11
12
15
38
31
44
36
30
43
17
27
19
37
6
28
7
18
46
40
22
16
41
34
29
2
26
4
35
45
10
24
42
5
48
39
32
21
13
25
14
23
3
END
DISTANCE: 10962
19
27
17
43
30
36
46
33
20
47
21
13
48
5
29
2
42
26
4
35
45
10
24
32
39
25
14
3
22
16
41
34
23
11
12
15
40
9
1
8
38
31
44
18
7
28
6
37
END
DISTANCE: 10977
8
1
9
40
11
14
25
39
32
24
10
45
35
4
26
42
2
29
5
48
34
41
16
22
3
23
13
21
47
20
12
15
33
46
36
30
43
17
27
19
37
6
28
7
18
44
31
38
END
DISTANCE: 11302
35
45
10
24
42
5
48
32
39
25
14
13
21
47
20
18
7
28
30
43
17
27
19
37
6
36
15
40
9
1
8
38
31
44
46
33
12
11
23
3
22
16
41
34
29
2
26
4
END
DISTANCE: 11204
45
10
24
42
5
48
32
39
25
23
11
40
9
1
8
38
31
44
18
7
28
6
37
19
27
17
43
30
36
46
33
15
12
20
47
21
13
14
41
16
22
3
34
29
2
26
4
35
END
DISTANCE: 11300
42
29
41
16
22
3
34
14
25
13
47
20
33
46
18
7
28
30
43
17
27
19
37
6
36
44
31
38
8
1
9
40
15
12
11
23
21
32
39
48
5
2
26
4
35
45
10
24
END
DISTANCE: 10864
18
7
28
6
37
19
27
17
43
30
36
44
31
38
8
1
9
40
3
22
16
41
34
48
5
29
2
42
26
4
35
45
10
24
32
39
25
14
23
11
13
21
47
20
12
15
33
46
END
DISTANCE: 11071
27
17
43
30
36
46
33
12
11
13
25
14
23
3
22
16
41
34
42
24
10
45
35
4
26
2
29
5
48
39
32
21
47
20
15
40
9
1
8
38
31
44
18
7
28
6
37
19
END
DISTANCE: 11081
4
35
45
10
24
42
5
48
39
32
21
13
25
14
3
22
16
1
8
9
40
15
12
33
46
38
31
44
18
7
28
6
37
19
27
17
43
30
36
20
47
11
23
34
41
29
2
26
END
DISTANCE: 10850
47
21
13
48
5
29
2
42
26
4
35
45
10
24
32
39
25
14
34
41
16
22
3
23
11
12
15
40
9
1
8
38
31
44
36
30
43
17
27
19
37
6
28
7
18
46
33
20
END
DISTANCE: 10805
45
10
24
42
5
48
39
32
21
47
20
12
40
15
33
46
36
6
37
19
27
17
43
30
28
7
18
44
31
38
9
8
1
16
22
3
23
11
13
25
14
34
41
29
2
26
4
35
END
DISTANCE: 11275
26
2
29
41
16
22
3
34
14
25
13
11
12
20
36
30
43
17
27
19
37
6
28
7
18
44
31
38
8
1
9
46
33
15
40
23
47
21
32
39
48
5
42
24
10
45
35
4
END
DISTANCE: 11337
45
10
24
42
29
41
34
3
22
16
1
8
9
38
31
44
36
30
43
17
27
19
37
6
28
7
18
46
12
11
47
20
33
15
40
23
14
25
13
21
32
39
48
5
2
26
4
35
END
DISTANCE: 11503
2
26
4
35
45
10
24
42
29
41
34
14
13
21
47
20
12
40
15
33
46
30
43
17
27
19
37
6
28
36
7
18
44
31
38
9
8
1
16
22
3
23
11
25
39
32
48
5
END
DISTANCE: 11825
42
5
48
39
32
21
47
20
40
9
8
1
22
16
41
14
25
13
11
15
38
31
36
30
43
17
27
19
37
6
28
7
18
44
46
33
12
23
3
34
29
2
26
4
35
45
10
24
END
DISTANCE: 10935
24
32
39
25
14
34
41
16
22
3
23
11
40
9
1
8
38
31
44
18
7
6
37
19
27
17
43
30
28
36
46
33
15
12
20
47
21
13
48
5
29
2
42
26
4
35
45
10
END
DISTANCE: 11010
37
19
27
17
43
30
28
7
18
44
31
38
8
1
9
40
15
12
11
23
25
39
32
24
10
45
35
4
26
42
48
5
29
2
41
16
22
3
34
14
13
21
47
20
33
46
36
6
END
DISTANCE: 10927
41
34
3
22
16
1
8
9
38
31
44
36
37
19
27
17
43
30
6
28
7
18
46
15
40
12
33
20
47
11
23
14
25
13
21
32
39
48
5
42
24
10
45
35
4
26
2
29
END
DISTANCE: 10893
44
18
7
28
6
37
19
27
17
43
30
36
46
33
20
47
13
25
14
3
22
16
41
34
29
2
26
4
35
45
10
24
42
5
48
39
32
21
23
11
12
15
40
9
1
8
38
31
END
DISTANCE: 10826
30
28
7
18
44
31
38
8
1
9
40
3
22
16
41
34
48
5
29
2
42
26
4
35
45
10
24
32
39
25
14
23
11
13
21
47
20
12
15
33
46
36
6
37
19
27
17
43
END
DISTANCE: 11362
26
4
35
45
10
24
42
5
48
25
14
23
3
1
8
9
38
31
44
18
7
28
6
37
19
27
17
43
30
36
20
47
21
32
39
13
11
12
33
46
15
40
22
16
41
34
29
2
END
DISTANCE: 11091
45
35
4
26
2
29
41
34
14
25
13
23
3
22
16
1
8
9
40
15
20
30
43
17
27
19
37
6
28
36
7
18
44
31
38
46
33
12
11
47
21
32
39
48
5
42
24
10
END
DISTANCE: 11047
17
27
19
37
6
28
7
18
44
31
38
9
8
1
23
11
47
21
39
32
24
10
45
35
4
26
42
2
29
5
48
25
13
14
34
41
16
22
3
40
15
12
20
33
46
36
30
43
END
DISTANCE: 10725
34
41
16
22
3
23
11
12
15
40
9
1
8
38
31
44
18
7
28
30
43
17
27
19
37
6
36
46
33
20
47
21
13
14
25
39
32
24
10
45
35
4
26
42
2
29
5
48
END
DISTANCE: 11071
39
48
5
29
2
26
4
35
45
10
24
42
34
41
16
22
3
23
14
25
13
11
12
33
46
36
30
43
17
27
19
37
6
28
7
18
44
31
38
8
1
9
40
15
20
47
21
32
END
DISTANCE: 11227
30
28
7
18
46
33
15
12
20
47
21
13
29
2
26
4
35
45
10
24
42
5
48
32
39
25
14
34
41
16
22
3
23
11
40
9
1
8
38
31
44
36
6
37
19
27
17
43
END
DISTANCE: 11288
34
41
3
22
16
1
8
38
44
18
7
28
6
37
19
27
17
43
30
36
31
9
40
15
46
33
12
20
47
11
23
14
25
13
21
39
32
24
10
45
35
4
26
42
2
29
5
48
END
